Models – brms workshop
…
sigma
51
3.0
[45.59, 57.30]
1
1
3008

Meet the S x P matrix

Code

post <- as_draws_df(fit1)
post[,1:6]
#> # A tibble: 4,000 × 6
#>    b_Intercept b_days sigma Intercept prior_Intercept prior_b_days
#>          <dbl>  <dbl> <dbl>     <dbl>           <dbl>        <dbl>
#>  1        270.  11.7   52.5      311.            346.        -37.7
#>  2        264.  12.6   53.1      308.            146.       -363. 
#>  3        273.   9.37  49.6      306.            232.        110. 
#>  4        255.  13.2   56.1      301.            106.        -14.2
#>  5        267.   9.43  55.1      300.            197.         94.2
#>  6        271.   7.22  53.2      296.            491.       -119. 
#>  7        273.   7.30  53.2      299.            406.        159. 
#>  8        275.   9.53  53.7      308.           -200.        182. 
#>  9        272.  11.0   45.5      310.            402.        104. 
#> 10        272.  11.4   56.9      312.            771.        -92.5
#> # ℹ 3,990 more rows
…
