Signal Detection Models – brms workshop
…
Figure 3: Top row: The joint posterior density of subject 53’s SDT parameters, estimated with the GLM and the nonlinear model. Lighter yellow colors indicate higher posterior density. The red dot indicates the sample mean d’ that was calculated ‘manually’. Bottom row: The marginal posterior densities of c and dprime from GLM (red) and nonlinear (blue) models.

There is little benefit in using the second, “nonlinear” parameterization of EVSDT in this case. However, it is useful to study this simpler case to make it easier to understand how to fit more complicated nonlinear models with brms.

Estimate parameters with aggregated data

It is sometimes useful, especially with very large data, to aggregate data to counts for each combination of all categorical predictors. For example, to aggregate the current data

Code

dat
#> # A tibble: 3,100 × 3
#>    subno sayold isold
#>    <dbl>  <dbl> <fct>
#>  1    53      0 new  
#>  2    53      0 new  
#>  3    53      0 new  
#>  4    53      0 new  
#>  5    53      0 new  
#>  6    53      0 new  
#>  7    53      0 new  
#>  8    53      0 new  
#>  9    53      0 new  
#> 10    53      0 new  
#> # ℹ 3,090 more rows
…
